# 1 "/Users/ngcchk/eql-related/eql5-ios/ecl/build_ios/fooaeMpFA.c"
# 1 "<built-in>" 1
# 1 "<built-in>" 3
# 382 "<built-in>" 3
# 1 "<command line>" 1
# 1 "<built-in>" 2
# 1 "/Users/ngcchk/eql-related/eql5-ios/ecl/build_ios/fooaeMpFA.c" 2





ECLVALUE 0001 4
# 48 "/Users/ngcchk/eql-related/eql5-ios/ecl/build_ios/fooaeMpFA.c"
ECLVALUE 0015 1


ECLVALUE 0016 1
